noprem_kernel_time   noprem_total_time   noprem_tgt_rtl_data_alloc   noprem_tgt_rtl_data_delete   noprem_tgt_rtl_data_retrieve   noprem_tgt_rtl_data_submit   noprem_tgt_rtl_init_device   noprem_tgt_rtl_load_binary   noprem_tgt_rtl_run_target_team_region	hv_kernel_time   hv_total_time   hv_setup   hv_exit    hv_tgt_rtl_data_alloc   hv_tgt_rtl_data_delete   hv_tgt_rtl_data_retrieve   hv_tgt_rtl_data_submit   hv_tgt_rtl_init_device   hv_tgt_rtl_load_binary   hv_tgt_rtl_run_target_team_region
0.230644             0.286587            528.45e-6                   1.3231e-3                    63.328e-6                      15.299e-3                    166.98e-3                    34.795e-3                    11.195e-3	0.255990                                 0.879256        0.000010   0.027523   528.45e-6               1.9883e-3                73.728e-6                  14.757e-3                173.54e-3                36.249e-3                28.117e-3
0.254408             0.314394            553.70e-6                   1.3445e-3                    56.416e-6                      15.095e-3                    190.92e-3                    34.641e-3                    11.332e-3	0.281546                                 0.915646        0.000010   0.027495   632.58e-6               1.3966e-3                76.096e-6                  14.890e-3                200.17e-3                35.441e-3                28.185e-3
0.275372             0.335534            528.45e-6                   1.3240e-3                    57.760e-6                      14.855e-3                    212.29e-3                    34.512e-3                    11.119e-3	0.267957                                 0.906376        0.000010   0.027324   635.74e-6               1.3614e-3                74.528e-6                  15.102e-3                186.57e-3                35.686e-3                27.991e-3
0.230742             0.282670            572.93e-6                   5.3951e-3                    55.296e-6                      14.818e-3                    163.83e-3                    34.680e-3                    10.942e-3	0.296461                                 0.938820        0.000010   0.027527   583.58e-6               1.3627e-3                72.352e-6                  15.019e-3                215.00e-3                35.502e-3                28.151e-3
0.240505             0.296482            542.37e-6                   5.4892e-3                    51.840e-6                      14.838e-3                    173.44e-3                    34.406e-3                    11.279e-3	0.256512                                 0.885494        0.000010   0.027249   520.42e-6               1.3233e-3                72.704e-6                  14.679e-3                175.85e-3                35.489e-3                27.860e-3
0.256134             0.316188            620.35e-6                   1.3399e-3                    57.696e-6                      15.168e-3                    192.68e-3                    34.751e-3                    11.064e-3	0.280513                                 0.914147        0.000010   0.027560   613.70e-6               1.3760e-3                75.584e-6                  15.159e-3                199.00e-3                35.383e-3                28.186e-3
0.278394             0.338428            565.22e-6                   1.3284e-3                    57.248e-6                      14.996e-3                    214.70e-3                    34.963e-3                    11.327e-3	0.251538                                 0.880419        0.000010   0.027333   601.66e-6               1.3770e-3                72.032e-6                  14.836e-3                170.44e-3                35.591e-3                27.966e-3
0.230693             0.286737            571.68e-6                   1.3510e-3                    58.816e-6                      15.011e-3                    167.58e-3                    34.642e-3                    11.040e-3	0.273985                                 0.906422        0.000010   0.027301   592.58e-6               1.3701e-3                79.424e-6                  14.931e-3                193.01e-3                35.338e-3                27.929e-3
0.261145             0.317100            573.86e-6                   1.3701e-3                    60.704e-6                      17.379e-3                    195.29e-3                    34.757e-3                    11.257e-3	0.309979                                 0.943520        0.000010   0.027509   585.98e-6               1.3657e-3                73.473e-6                  14.783e-3                229.06e-3                35.286e-3                28.116e-3
0.280165             0.340156            632.42e-6                   1.3619e-3                    56.160e-6                      15.008e-3                    216.45e-3                    35.091e-3                    11.093e-3	0.251951                                 0.876162        0.000010   0.027278   591.90e-6               1.4335e-3                72.032e-6                  14.864e-3                170.80e-3                35.578e-3                27.899e-3
0.230045             0.286204            593.18e-6                   1.3516e-3                    59.200e-6                      15.200e-3                    166.30e-3                    34.716e-3                    11.379e-3	0.277816                                 0.910949        0.000010   0.027296   581.70e-6               1.3639e-3                73.280e-6                  14.990e-3                196.87e-3                35.484e-3                27.903e-3
0.257008             0.313011            575.07e-6                   1.3783e-3                    54.048e-6                      15.042e-3                    194.01e-3                    34.417e-3                    11.015e-3	0.304024                                 0.938105        0.000010   0.027342   609.50e-6               1.3770e-3                71.840e-6                  15.029e-3                222.88e-3                35.392e-3                27.960e-3
0.287058             0.347065            586.21e-6                   1.3420e-3                    55.616e-6                      15.053e-3                    223.86e-3                    34.649e-3                    11.072e-3	0.249911                                 0.875947        0.000010   0.027544   582.59e-6               1.4127e-3                75.904e-6                  14.852e-3                168.68e-3                35.432e-3                28.167e-3
0.229974             0.283768            648.54e-6                   1.3584e-3                    58.720e-6                      14.861e-3                    166.85e-3                    34.785e-3                    10.973e-3	0.288741                                 0.923921        0.000010   0.027510   655.10e-6               1.3958e-3                72.576e-6                  14.966e-3                207.49e-3                35.295e-3                28.137e-3
0.255694             0.315805            612.55e-6                   1.3538e-3                    58.816e-6                      15.198e-3                    192.37e-3                    34.644e-3                    10.999e-3	0.252382                                 0.879849        0.000010   0.027299   586.02e-6               1.3712e-3                77.664e-6                  14.926e-3                171.34e-3                35.610e-3                27.942e-3
0.281916             0.342012            584.64e-6                   1.3646e-3                    56.704e-6                      14.975e-3                    218.70e-3                    34.551e-3                    11.186e-3	0.276540                                 0.905586        0.000010   0.027288   669.09e-6               2.0562e-3                75.456e-6                  14.938e-3                194.74e-3                35.372e-3                27.968e-3
0.229659             0.285466            582.78e-6                   1.3448e-3                    57.472e-6                      15.073e-3                    166.17e-3                    34.684e-3                    11.050e-3	0.307476                                 0.937919        0.000010   0.027339   747.94e-6               2.0544e-3                72.576e-6                  14.880e-3                225.45e-3                35.459e-3                28.081e-3
0.250500             0.310559            595.71e-6                   1.3788e-3                    58.560e-6                      15.186e-3                    186.70e-3                    34.788e-3                    11.320e-3	0.254370                                 0.885848        0.000010   0.027348   619.62e-6               1.3963e-3                74.944e-6                  14.984e-3                173.34e-3                35.415e-3                27.977e-3
0.280103             0.340174            601.18e-6                   1.3503e-3                    56.288e-6                      15.196e-3                    216.09e-3                    35.172e-3                    11.178e-3	0.288396                                 0.921220        0.000009   0.027691   651.90e-6               1.3846e-3                104.93e-6                  14.861e-3                206.86e-3                35.628e-3                28.365e-3
0.228552             0.284428            651.52e-6                   1.3711e-3                    56.032e-6                      14.786e-3                    165.12e-3                    34.878e-3                    11.230e-3	0.249255                                 0.875071        0.000010   0.027271   597.38e-6               2.0230e-3                73.152e-6                  14.883e-3                167.16e-3                35.927e-3                27.889e-3
