noprem_kernel_time   noprem_total_time   noprem_tgt_rtl_data_alloc   noprem_tgt_rtl_data_delete   noprem_tgt_rtl_data_retrieve   noprem_tgt_rtl_data_submit   noprem_tgt_rtl_init_device   noprem_tgt_rtl_load_binary   noprem_tgt_rtl_run_target_team_region	hv_kernel_time   hv_total_time   hv_setup   hv_exit    hv_tgt_rtl_data_alloc   hv_tgt_rtl_data_delete   hv_tgt_rtl_data_retrieve   hv_tgt_rtl_data_submit   hv_tgt_rtl_init_device   hv_tgt_rtl_load_binary   hv_tgt_rtl_run_target_team_region
0.256255             0.352272            789.57e-6                   2.1412e-3                    56.416e-6                      26.050e-3                    172.79e-3                    36.926e-3                    17.060e-3	0.288546                                 1.398636        0.000010   0.049239   873.09e-6               2.8907e-3                77.856e-6                  26.466e-3                170.70e-3                37.028e-3                49.806e-3
0.273455             0.373824            806.66e-6                   2.1149e-3                    53.728e-6                      26.187e-3                    189.83e-3                    36.882e-3                    16.937e-3	0.315167                                 1.434296        0.000010   0.049230   1.0837e-3               2.2799e-3                79.072e-6                  26.573e-3                197.92e-3                36.679e-3                49.824e-3
0.294208             0.393901            791.55e-6                   2.1186e-3                    59.552e-6                      26.087e-3                    211.05e-3                    36.834e-3                    16.829e-3	0.283549                                 1.393618        0.000010   0.048678   1.0144e-3               2.9307e-3                76.608e-6                  26.257e-3                166.55e-3                36.586e-3                49.415e-3
0.312243             0.412948            816.42e-6                   2.1339e-3                    63.424e-6                      25.980e-3                    228.80e-3                    37.082e-3                    16.921e-3	0.318379                                 1.438675        0.000010   0.049165   1.0404e-3               2.3407e-3                76.096e-6                  26.545e-3                201.01e-3                36.830e-3                49.808e-3
0.256954             0.353085            779.84e-6                   2.1329e-3                    55.008e-6                      26.066e-3                    173.52e-3                    37.142e-3                    16.799e-3	0.279886                                 1.393249        0.000010   0.049233   957.76e-6               2.2766e-3                75.744e-6                  26.353e-3                163.06e-3                36.569e-3                49.881e-3
0.282375             0.384126            820.54e-6                   2.1371e-3                    59.104e-6                      26.168e-3                    197.45e-3                    38.311e-3                    16.989e-3	0.315953                                 1.436547        0.000010   0.049279   996.03e-6               2.2758e-3                92.416e-6                  26.488e-3                198.82e-3                36.672e-3                49.897e-3
0.311715             0.410640            823.46e-6                   2.4445e-3                    61.952e-6                      26.039e-3                    227.74e-3                    37.163e-3                    16.996e-3	0.287678                                 1.398240        0.000010   0.049214   969.57e-6               3.0493e-3                76.512e-6                  26.678e-3                169.27e-3                37.067e-3                49.835e-3
0.272889             0.366367            809.47e-6                   2.1304e-3                    91.680e-6                      27.610e-3                    186.78e-3                    37.695e-3                    17.172e-3	0.318904                                 1.437863        0.000010   0.048650   993.18e-6               2.2815e-3                76.544e-6                  26.429e-3                202.34e-3                36.708e-3                49.351e-3
0.297807             0.393427            769.54e-6                   2.1207e-3                    58.976e-6                      26.075e-3                    214.34e-3                    37.251e-3                    16.736e-3	0.280943                                 1.393609        0.000010   0.048788   1.0143e-3               2.2740e-3                75.616e-6                  26.331e-3                164.34e-3                36.751e-3                49.444e-3
0.310221             0.410776            778.34e-6                   2.1273e-3                    62.816e-6                      26.099e-3                    225.84e-3                    37.969e-3                    16.906e-3	0.310469                                 1.424000        0.000010   0.049182   937.60e-6               2.9098e-3                75.808e-6                  26.205e-3                192.74e-3                37.072e-3                49.813e-3
0.319973             0.420515            756.22e-6                   2.1039e-3                    67.168e-6                      26.345e-3                    235.93e-3                    37.356e-3                    16.974e-3	0.338257                                 1.457708        0.000009   0.048679   947.17e-6               2.2721e-3                74.624e-6                  26.631e-3                220.80e-3                37.432e-3                49.378e-3
0.258549             0.350597            763.20e-6                   2.0964e-3                    57.728e-6                      26.061e-3                    174.91e-3                    37.353e-3                    16.869e-3	0.288386                                 1.405907        0.000010   0.049256   970.59e-6               2.2589e-3                84.832e-6                  26.241e-3                170.97e-3                37.227e-3                49.907e-3
0.264365             0.364596            737.28e-6                   2.0987e-3                    56.320e-6                      25.858e-3                    180.59e-3                    37.548e-3                    16.790e-3	0.315745                                 1.432347        0.000010   0.049224   922.40e-6               2.9121e-3                74.752e-6                  26.337e-3                197.86e-3                37.082e-3                49.852e-3
0.290549             0.390816            763.52e-6                   2.1387e-3                    63.840e-6                      25.938e-3                    206.67e-3                    37.667e-3                    16.863e-3	0.352164                                 1.472576        0.000010   0.049169   917.57e-6               2.2434e-3                71.872e-6                  26.385e-3                234.61e-3                37.411e-3                49.811e-3
0.314377             0.414760            769.47e-6                   2.1638e-3                    62.528e-6                      26.050e-3                    230.32e-3                    37.605e-3                    16.973e-3	0.299030                                 1.418451        0.000010   0.048673   922.56e-6               2.2976e-3                78.528e-6                  26.173e-3                180.92e-3                38.615e-3                49.295e-3
0.271497             0.367565            796.64e-6                   2.1172e-3                    53.920e-6                      26.042e-3                    187.67e-3                    37.403e-3                    16.937e-3	0.333961                                 1.452459        0.000010   0.048643   904.74e-6               2.2494e-3                72.000e-6                  26.371e-3                216.75e-3                37.590e-3                49.311e-3
0.281559             0.382061            778.27e-6                   2.1611e-3                    59.008e-6                      26.166e-3                    197.46e-3                    37.391e-3                    16.906e-3	0.279945                                 1.395466        0.000010   0.048780   914.14e-6               2.5075e-3                75.168e-6                  26.110e-3                162.75e-3                37.453e-3                49.433e-3
0.302201             0.402518            754.30e-6                   2.1068e-3                    58.560e-6                      26.112e-3                    218.12e-3                    37.665e-3                    16.940e-3	0.321896                                 1.435297        0.000009   0.049195   876.19e-6               2.8996e-3                76.320e-6                  26.521e-3                203.22e-3                37.783e-3                49.819e-3
0.315433             0.415796            783.81e-6                   2.1516e-3                    64.640e-6                      26.103e-3                    231.57e-3                    37.410e-3                    16.898e-3	0.279259                                 1.389188        0.000010   0.048741   897.02e-6               2.9121e-3                76.128e-6                  26.302e-3                161.25e-3                37.691e-3                49.408e-3
0.255861             0.348416            789.02e-6                   2.1230e-3                    55.936e-6                      26.194e-3                    172.19e-3                    37.425e-3                    16.639e-3	0.315839                                 1.436305        0.000010   0.049291   860.13e-6               2.2562e-3                78.592e-6                  26.343e-3                197.84e-3                37.829e-3                49.932e-3
