noprem_kernel_time   noprem_total_time   noprem_tgt_rtl_data_alloc   noprem_tgt_rtl_data_delete   noprem_tgt_rtl_data_retrieve   noprem_tgt_rtl_data_submit   noprem_tgt_rtl_init_device   noprem_tgt_rtl_load_binary   noprem_tgt_rtl_run_target_team_region	hv_kernel_time   hv_total_time   hv_setup   hv_exit    hv_tgt_rtl_data_alloc   hv_tgt_rtl_data_delete   hv_tgt_rtl_data_retrieve   hv_tgt_rtl_data_submit   hv_tgt_rtl_init_device   hv_tgt_rtl_load_binary   hv_tgt_rtl_run_target_team_region
0.241568             0.241922            151.74e-6                   225.34e-6                    146.62e-6                      401.98e-6                    186.14e-3                    34.172e-3                    19.935e-3	0.255206                                 0.263770        0.000010   0.041581   141.34e-6               273.79e-6                168.99e-6                  391.87e-6                176.60e-3                34.957e-3                42.183e-3
0.240248             0.240605            147.84e-6                   223.94e-6                    142.59e-6                      404.35e-6                    184.59e-3                    34.393e-3                    19.935e-3	0.272664                                 0.281275        0.000010   0.041061   147.84e-6               251.77e-6                189.63e-6                  395.45e-6                190.96e-3                34.514e-3                41.641e-3
0.228813             0.229166            148.03e-6                   219.10e-6                    143.74e-6                      409.47e-6                    173.54e-3                    34.017e-3                    19.932e-3	0.285019                                 0.293619        0.000010   0.041160   145.79e-6               262.21e-6                171.17e-6                  382.88e-6                203.25e-3                34.493e-3                41.743e-3
0.232934             0.233291            144.10e-6                   225.25e-6                    146.37e-6                      408.06e-6                    177.55e-3                    34.127e-3                    19.933e-3	0.283899                                 0.292535        0.000010   0.041414   169.38e-6               256.00e-6                171.97e-6                  474.84e-6                201.89e-3                34.380e-3                42.000e-3
0.235681             0.236041            150.56e-6                   221.82e-6                    147.84e-6                      398.65e-6                    179.99e-3                    34.432e-3                    19.936e-3	0.287085                                 0.295733        0.000010   0.041550   190.97e-6               261.73e-6                166.75e-6                  392.73e-6                204.62e-3                34.734e-3                42.147e-3
0.232377             0.232735            145.92e-6                   224.67e-6                    148.10e-6                      403.77e-6                    176.70e-3                    34.414e-3                    19.934e-3	0.289342                                 0.297978        0.000010   0.041464   146.82e-6               261.57e-6                174.53e-6                  393.56e-6                207.19e-3                34.569e-3                42.050e-3
0.239941             0.240300            150.34e-6                   219.42e-6                    146.08e-6                      401.34e-6                    184.40e-3                    34.283e-3                    19.932e-3	0.289361                                 0.298000        0.000010   0.041438   145.41e-6               259.49e-6                173.47e-6                  398.85e-6                207.29e-3                34.523e-3                42.036e-3
0.221824             0.222183            151.17e-6                   227.42e-6                    147.39e-6                      441.15e-6                    166.08e-3                    34.434e-3                    19.935e-3	0.288617                                 0.297184        0.000009   0.041548   172.13e-6               266.21e-6                193.02e-6                  399.30e-6                205.77e-3                35.016e-3                42.152e-3
0.231091             0.231446            144.41e-6                   221.70e-6                    145.12e-6                      401.66e-6                    175.84e-3                    34.003e-3                    19.936e-3	0.292205                                 0.300773        0.000009   0.041405   149.37e-6               261.15e-6                169.70e-6                  399.61e-6                211.94e-3                35.790e-3                42.015e-3
0.227860             0.228210            140.03e-6                   235.90e-6                    144.16e-6                      394.85e-6                    172.34e-3                    34.272e-3                    19.933e-3	0.295727                                 0.304378        0.000010   0.041088   148.06e-6               262.78e-6                171.07e-6                  412.83e-6                213.44e-3                34.799e-3                41.682e-3
0.226322             0.226673            147.10e-6                   219.23e-6                    145.18e-6                      414.21e-6                    170.81e-3                    34.243e-3                    19.934e-3	0.296297                                 0.304851        0.000010   0.041429   146.30e-6               258.75e-6                170.49e-6                  404.22e-6                217.88e-3                34.909e-3                42.031e-3
0.229088             0.229477            150.33e-6                   224.42e-6                    142.30e-6                      405.47e-6                    173.46e-3                    34.366e-3                    19.935e-3	0.307051                                 0.315635        0.000009   0.041696   136.67e-6               264.51e-6                169.34e-6                  402.43e-6                224.16e-3                34.922e-3                42.320e-3
0.226813             0.227167            152.93e-6                   223.90e-6                    141.73e-6                      410.53e-6                    170.94e-3                    34.565e-3                    19.937e-3	0.249742                                 0.258238        0.000010   0.041462   141.60e-6               249.82e-6                165.18e-6                  413.38e-6                171.23e-3                34.989e-3                42.067e-3
0.230160             0.230522            146.53e-6                   221.28e-6                    144.06e-6                      397.08e-6                    174.48e-3                    34.435e-3                    19.934e-3	0.251403                                 0.264039        0.000010   0.041168   143.33e-6               256.70e-6                168.51e-6                  408.03e-6                173.13e-3                35.020e-3                41.769e-3
0.226937             0.227333            144.67e-6                   223.46e-6                    144.77e-6                      406.62e-6                    171.09e-3                    34.604e-3                    19.932e-3	0.269268                                 0.277855        0.000010   0.040996   153.31e-6               255.87e-6                169.92e-6                  410.33e-6                187.09e-3                35.008e-3                41.612e-3
0.225395             0.225751            148.93e-6                   221.73e-6                    142.75e-6                      397.44e-6                    169.52e-3                    34.634e-3                    19.932e-3	0.273943                                 0.282522        0.000010   0.041396   146.01e-6               256.45e-6                166.78e-6                  406.91e-6                190.32e-3                36.071e-3                41.996e-3
0.228798             0.229149            147.62e-6                   268.48e-6                    175.49e-6                      394.08e-6                    172.90e-3                    34.573e-3                    19.938e-3	0.280731                                 0.289348        0.000010   0.041113   146.30e-6               259.42e-6                169.54e-6                  406.46e-6                197.79e-3                35.673e-3                41.717e-3
0.234302             0.234659            147.90e-6                   226.65e-6                    146.11e-6                      411.80e-6                    178.60e-3                    34.441e-3                    19.934e-3	0.287760                                 0.296404        0.000009   0.041525   146.27e-6               256.13e-6                171.71e-6                  410.08e-6                208.23e-3                34.989e-3                42.111e-3
0.228628             0.228981            149.12e-6                   231.30e-6                    143.87e-6                      399.30e-6                    172.84e-3                    34.519e-3                    19.936e-3	0.288276                                 0.296957        0.000010   0.041408   142.85e-6               258.18e-6                170.75e-6                  406.08e-6                209.67e-3                35.139e-3                42.003e-3
0.232614             0.232969            154.72e-6                   223.74e-6                    141.70e-6                      491.74e-6                    176.59e-3                    34.671e-3                    19.935e-3	0.288588                                 0.297177        0.000010   0.041299   146.94e-6               258.72e-6                190.59e-6                  404.61e-6                205.99e-3                35.123e-3                41.897e-3
